Cleaning SFO Weather Data – COMP/STAT212 Portfolio
…
Code
weather<-weather|> 
  mutate(DateInYear=yday(mdy(date)))
weather

# A tibble: 365 × 19
   Month   Day   Low  High NormalLow NormalHigh RecordLow LowYr RecordHigh
   <dbl> <dbl> <dbl> <dbl>     <dbl>      <dbl>     <dbl> <dbl>      <dbl>
 1    11    20    48    55        48         62        35  1964         69
 2     6    16    52    68        53         70        46  1952         90
 3     5     9    47    63        50         66        41  1950         88
 4    10    26    47    69        52         69        39  1954         89
 5     9    27    55    82        55         73        47  1955         96
 6     7     6    52    70        54         71        47  1953         86
 7    11     3    48    60        51         66        40  1971         84
 8     3    26    47    58        47         62        38  1980         79
 9    10     4    57    66        55         72        47  1989         95
10    11    26    49    59        47         60        36  1952         76
# ℹ 355 more rows
# ℹ 10 more variables: HiYear <dbl>, Precip <dbl>, RecordPrecip <dbl>,
#   PrecipYr <dbl>, date <chr>, Record <lgl>, RecordText <chr>, RecordP <lgl>,
#   CulmPrec <dbl>, DateInYear <dbl>

Code
weather<-weather |> 
  mutate(month_name=month.abb[Month])

weather

# A tibble: 365 × 20
   Month   Day   Low  High NormalLow NormalHigh RecordLow LowYr RecordHigh
   <dbl> <dbl> <dbl> <dbl>     <dbl>      <dbl>     <dbl> <dbl>      <dbl>
 1    11    20    48    55        48         62        35  1964         69
 2     6    16    52    68        53         70        46  1952         90
 3     5     9    47    63        50         66        41  1950         88
 4    10    26    47    69        52         69        39  1954         89
 5     9    27    55    82        55         73        47  1955         96
 6     7     6    52    70        54         71        47  1953         86
 7    11     3    48    60        51         66        40  1971         84
 8     3    26    47    58        47         62        38  1980         79
 9    10     4    57    66        55         72        47  1989         95
10    11    26    49    59        47         60        36  1952         76
# ℹ 355 more rows
# ℹ 11 more variables: HiYear <dbl>, Precip <dbl>, RecordPrecip <dbl>,
#   PrecipYr <dbl>, date <chr>, Record <lgl>, RecordText <chr>, RecordP <lgl>,
#   CulmPrec <dbl>, DateInYear <dbl>, month_name <chr>
…
